VERILOG/arith/regfile_tb.vcd
$date
	Mon Dec 08 21:50:15 2025
$end
$version
	Icarus Verilog
$end
$timescale
	1ps
$end
$scope module reg_tb $end
$var wire 32 ! R_Data2 [31:0] $end
$var wire 32 " R_Data1 [31:0] $end
$var reg 5 # R_Ad1 [4:0] $end
$var reg 5 $ R_Ad2 [4:0] $end
$var reg 5 % W_Ad [4:0] $end
$var reg 32 & W_Data [31:0] $end
$var reg 1 ' clk $end
$var reg 1 ( rst $end
$var reg 1 ) we $end
$scope module dut $end
$var wire 1 ' clk $end
$var wire 5 * rd_adr1 [4:0] $end
$var wire 5 + rd_adr2 [4:0] $end
$var wire 1 ( rst $end
$var wire 5 , w_adr [4:0] $end
$var wire 32 - w_data [31:0] $end
$var wire 1 ) we $end
$var wire 32 . rd_data2 [31:0] $end
$var wire 32 / rd_data1 [31:0] $end
$var integer 32 0 i [31:0] $end
$upscope $end
$upscope $end
$enddefinitions $end
$comment Show the parameter values. $end
$dumpall
$end
#0
$dumpvars
b100000 0
b0 /
b0 .
b0 -
b0 ,
b0 +
b0 *
0)
0(
0'
b0 &
b0 %
b0 $
b0 #
b0 "
b0 !
$end
#5000
b100000 0
1'
#10000
0'
1(
#15000
1'
#20000
0'
1)
b10101011110111101111000000010010 &
b10101011110111101111000000010010 -
b1 %
b1 ,
#25000
1'
#30000
b10101011110111101111000000010010 "
b10101011110111101111000000010010 /
0'
b1 #
b1 *
0)
#35000
1'
#40000
0'
#41000
1)
b1001000111010101111001101 &
b1001000111010101111001101 -
b10 %
b10 ,
#45000
1'
#50000
0'
#51000
b1001000111010101111001101 !
b1001000111010101111001101 .
b10 $
b10 +
0)
#55000
1'
#60000
0'
#62000
1)
b11111111111111111111111111111111 &
b11111111111111111111111111111111 -
b0 %
b0 ,
#65000
1'
#70000
0'
#72000
b0 "
b0 /
b0 #
b0 *
0)
